{
  "Intel": {
    "cxx": "icpc", 
    "cc": "icc", 
    "fortran": "ifort"
  }, 
  "GNU-MP": {
    "cxx": "g++-mp-4.9", 
    "cc": "gcc-mp-4.9", 
    "fortran": "gfortran-mp-4.9"
  }, 
  "CLANG":  {
    "cxx": "clang++",  
    "cc": "clang"
  }, 
  "PGI": {
    "cxx": "pgc++", 
    "cc": "pgcc",  
    "fortran": "pgf90"
  }
}
